"Caller Number","Answered Extension","Started Time","Ended Time","Duration (Seconds)"
712516894,2095,"16/04/2021 01:15","16/04/2021 01:22",392
712516894,2050,"16/04/2021 01:52","16/04/2021 01:53",75
755334935,2050,"16/04/2021 02:09","16/04/2021 02:13",227
767884139,2050,"16/04/2021 02:38","16/04/2021 02:39",46
770032349,2095,"16/04/2021 02:41","16/04/2021 02:44",188
716290878,2095,"16/04/2021 05:06","16/04/2021 05:13",397
718246671,2050,"16/04/2021 06:18","16/04/2021 06:22",192
718246671,2095,"16/04/2021 06:43","16/04/2021 06:44",69
777958081,2095,"16/04/2021 06:46","16/04/2021 06:47",61
777958081,2095,"16/04/2021 07:03","16/04/2021 07:04",54
777958081,2050,"16/04/2021 07:21","16/04/2021 07:22",40
771579724,2050,"16/04/2021 07:26","16/04/2021 07:27",61
714400477,2095,"16/04/2021 07:35","16/04/2021 07:38",193
772736767,2095,"16/04/2021 07:42","16/04/2021 07:46",216
777779771,2100,"16/04/2021 07:55","16/04/2021 07:59",281
777734870,2050,"16/04/2021 08:00","16/04/2021 08:02",85
773919998,2055,"16/04/2021 08:00","16/04/2021 08:03",157
713451930,2085,"16/04/2021 08:04","16/04/2021 08:08",253
703356601,2060,"16/04/2021 08:05","16/04/2021 08:08",163
784249022,2070,"16/04/2021 08:08","16/04/2021 08:10",76
777779771,2030,"16/04/2021 08:10","16/04/2021 08:11",74
784249022,2050,"16/04/2021 08:11","16/04/2021 08:14",183
772736767,2030,"16/04/2021 08:14","16/04/2021 08:14",18
779641430,2100,"16/04/2021 08:18","16/04/2021 08:20",113
752205029,2050,"16/04/2021 08:25","16/04/2021 08:25",31
785286188,2085,"16/04/2021 08:22","16/04/2021 08:27",257
752205029,2055,"16/04/2021 08:26","16/04/2021 08:28",128
773930552,2100,"16/04/2021 08:28","16/04/2021 08:29",55
784297769,2065,"16/04/2021 08:28","16/04/2021 08:32",220
759677154,2050,"16/04/2021 08:31","16/04/2021 08:34",208
773880736,2060,"16/04/2021 08:34","16/04/2021 08:35",86
772858875,2100,"16/04/2021 08:37","16/04/2021 08:39",138
114897373,2065,"16/04/2021 08:44","16/04/2021 08:45",88
754591937,2065,"16/04/2021 08:47","16/04/2021 08:48",40
704528158,2050,"16/04/2021 08:49","16/04/2021 08:53",277
772297334,2060,"16/04/2021 08:53","16/04/2021 08:55",170
712123918,2030,"16/04/2021 08:54","16/04/2021 09:00",343
712093211,2065,"16/04/2021 08:58","16/04/2021 09:01",168
776764298,2060,"16/04/2021 09:04","16/04/2021 09:06",109
716722468,2100,"16/04/2021 09:04","16/04/2021 09:06",98
760330497,2030,"16/04/2021 09:06","16/04/2021 09:08",100
776427657,2060,"16/04/2021 09:06","16/04/2021 09:10",221
772577862,2050,"16/04/2021 09:09","16/04/2021 09:10",82
773131160,2065,"16/04/2021 09:09","16/04/2021 09:11",118
767607907,2030,"16/04/2021 09:11","16/04/2021 09:12",51
773915730,2055,"16/04/2021 09:10","16/04/2021 09:14",238
784249022,2065,"16/04/2021 09:12","16/04/2021 09:14",94
771110322,2060,"16/04/2021 09:13","16/04/2021 09:14",74
634976211,2060,"16/04/2021 09:15","16/04/2021 09:15",37
701074245,2030,"16/04/2021 09:13","16/04/2021 09:17",241
752205029,2065,"16/04/2021 09:15","16/04/2021 09:17",120
703975039,2065,"16/04/2021 09:17","16/04/2021 09:21",199
774261840,2055,"16/04/2021 09:17","16/04/2021 09:21",255
772344681,2060,"16/04/2021 09:21","16/04/2021 09:22",79
773915730,2060,"16/04/2021 09:24","16/04/2021 09:24",5
703968539,2050,"16/04/2021 09:24","16/04/2021 09:29",295
718981600,2065,"16/04/2021 09:28","16/04/2021 09:32",246
713138745,2060,"16/04/2021 09:32","16/04/2021 09:34",141
234976211,2055,"16/04/2021 09:34","16/04/2021 09:35",102
474935213,2030,"16/04/2021 09:36","16/04/2021 09:36",3
714708787,2065,"16/04/2021 09:34","16/04/2021 09:36",163
772577862,2055,"16/04/2021 09:39","16/04/2021 09:40",78
714654629,2060,"16/04/2021 09:39","16/04/2021 09:41",87
773475699,2055,"16/04/2021 09:40","16/04/2021 09:43",173
771110322,2060,"16/04/2021 09:44","16/04/2021 09:45",69
776290709,2050,"16/04/2021 09:44","16/04/2021 09:45",98
768554648,2065,"16/04/2021 09:43","16/04/2021 09:48",269
112236510,2030,"16/04/2021 09:58","16/04/2021 09:59",72
773912319,2055,"16/04/2021 09:59","16/04/2021 10:02",166
779605221,2065,"16/04/2021 10:01","16/04/2021 10:02",48
634976211,2030,"16/04/2021 10:03","16/04/2021 10:04",39
774414334,2065,"16/04/2021 10:03","16/04/2021 10:05",122
765694133,2050,"16/04/2021 10:01","16/04/2021 10:06",311
112079390,2030,"16/04/2021 10:04","16/04/2021 10:06",131
322268005,2060,"16/04/2021 10:03","16/04/2021 10:06",142
714654629,2065,"16/04/2021 10:06","16/04/2021 10:08",135
776427657,2060,"16/04/2021 10:08","16/04/2021 10:09",80
718271526,2065,"16/04/2021 10:09","16/04/2021 10:12",130
703573090,2060,"16/04/2021 10:11","16/04/2021 10:12",92
718301595,2065,"16/04/2021 10:16","16/04/2021 10:19",161
703573090,2050,"16/04/2021 10:16","16/04/2021 10:19",166
774147049,2030,"16/04/2021 10:19","16/04/2021 10:21",106
769865016,2085,"16/04/2021 10:21","16/04/2021 10:22",54
814949637,2060,"16/04/2021 10:20","16/04/2021 10:23",137
114347239,2050,"16/04/2021 10:22","16/04/2021 10:23",33
767291961,2065,"16/04/2021 10:23","16/04/2021 10:24",102
771663133,2055,"16/04/2021 10:22","16/04/2021 10:25",220
773919998,2020,"16/04/2021 10:25","16/04/2021 10:26",73
722850790,2030,"16/04/2021 10:25","16/04/2021 10:27",68
773470246,2030,"16/04/2021 10:29","16/04/2021 10:29",15
817500315,2020,"16/04/2021 10:28","16/04/2021 10:30",136
778164642,2020,"16/04/2021 10:32","16/04/2021 10:36",228
710721053,2030,"16/04/2021 10:33","16/04/2021 10:36",185
704898053,2050,"16/04/2021 10:33","16/04/2021 10:36",166
114897373,2065,"16/04/2021 10:33","16/04/2021 10:36",235
711489912,2060,"16/04/2021 10:35","16/04/2021 10:37",154
769175260,2020,"16/04/2021 10:38","16/04/2021 10:39",82
777616929,2060,"16/04/2021 10:41","16/04/2021 10:43",98
117500801,2055,"16/04/2021 10:40","16/04/2021 10:43",189
760447037,2100,"16/04/2021 10:37","16/04/2021 10:43",378
773919998,2050,"16/04/2021 10:43","16/04/2021 10:44",39
777297032,2030,"16/04/2021 10:46","16/04/2021 10:47",50
716288960,2055,"16/04/2021 10:44","16/04/2021 10:49",290
776760392,2065,"16/04/2021 10:50","16/04/2021 10:52",152
718048647,2100,"16/04/2021 10:49","16/04/2021 10:53",204
714400477,2020,"16/04/2021 10:53","16/04/2021 10:54",71
778630907,2030,"16/04/2021 10:55","16/04/2021 10:55",30
778282293,2060,"16/04/2021 10:55","16/04/2021 10:58",133
716509886,2090,"16/04/2021 10:57","16/04/2021 10:59",113
776519422,2050,"16/04/2021 10:58","16/04/2021 11:00",116
344941490,2030,"16/04/2021 11:02","16/04/2021 11:03",32
775948148,2020,"16/04/2021 11:01","16/04/2021 11:04",161
765694133,2100,"16/04/2021 11:03","16/04/2021 11:06",136
702011279,2060,"16/04/2021 11:05","16/04/2021 11:06",74
773405639,2055,"16/04/2021 11:06","16/04/2021 11:08",158
776395658,2090,"16/04/2021 11:04","16/04/2021 11:11",385
769175260,2065,"16/04/2021 11:10","16/04/2021 11:12",90
775876060,2050,"16/04/2021 11:09","16/04/2021 11:13",209
776950410,2030,"16/04/2021 11:12","16/04/2021 11:14",109
789273114,2100,"16/04/2021 11:11","16/04/2021 11:15",235
710292551,2065,"16/04/2021 11:12","16/04/2021 11:16",215
777616929,2065,"16/04/2021 11:16","16/04/2021 11:16",22
763482744,2060,"16/04/2021 11:14","16/04/2021 11:17",164
784951685,2020,"16/04/2021 11:16","16/04/2021 11:17",84
344941490,2030,"16/04/2021 11:16","16/04/2021 11:17",50
778282293,2060,"16/04/2021 11:19","16/04/2021 11:20",57
775306966,2065,"16/04/2021 11:21","16/04/2021 11:23",73
726106573,2055,"16/04/2021 11:22","16/04/2021 11:23",78
772858875,2060,"16/04/2021 11:22","16/04/2021 11:24",127
711445500,2030,"16/04/2021 11:21","16/04/2021 11:24",201
718020890,2050,"16/04/2021 11:23","16/04/2021 11:24",83
778584714,2065,"16/04/2021 11:23","16/04/2021 11:25",139
752205029,2050,"16/04/2021 11:26","16/04/2021 11:28",128
112790186,2020,"16/04/2021 11:28","16/04/2021 11:31",145
117500690,2055,"16/04/2021 11:31","16/04/2021 11:32",46
772018883,2050,"16/04/2021 11:28","16/04/2021 11:32",254
117500690,2020,"16/04/2021 11:33","16/04/2021 11:36",176
766420168,2060,"16/04/2021 11:31","16/04/2021 11:36",327
776760392,2065,"16/04/2021 11:36","16/04/2021 11:36",46
114449990,2100,"16/04/2021 11:36","16/04/2021 11:37",43
770691170,2030,"16/04/2021 11:35","16/04/2021 11:37",101
711641134,2065,"16/04/2021 11:37","16/04/2021 11:38",66
344941490,2030,"16/04/2021 11:38","16/04/2021 11:39",33
776428796,2055,"16/04/2021 11:36","16/04/2021 11:39",141
770691170,2030,"16/04/2021 11:39","16/04/2021 11:39",23
773405639,2050,"16/04/2021 11:41","16/04/2021 11:42",50
787954095,2090,"16/04/2021 11:40","16/04/2021 11:44",188
783433001,2030,"16/04/2021 11:40","16/04/2021 11:44",219
719514130,2060,"16/04/2021 11:48","16/04/2021 11:51",144
664468130,2055,"16/04/2021 11:50","16/04/2021 11:51",46
117500690,2065,"16/04/2021 11:50","16/04/2021 11:52",91
114389211,2020,"16/04/2021 11:54","16/04/2021 11:55",34
773474183,2060,"16/04/2021 11:54","16/04/2021 11:56",86
774474096,2050,"16/04/2021 11:54","16/04/2021 11:56",103
741241251,2050,"16/04/2021 11:56","16/04/2021 11:57",38
753232233,2020,"16/04/2021 11:59","16/04/2021 11:59",19
776861220,2065,"16/04/2021 11:58","16/04/2021 11:59",100
778348023,2020,"16/04/2021 11:59","16/04/2021 12:00",75
774474096,2030,"16/04/2021 11:59","16/04/2021 12:00",63
770740692,2090,"16/04/2021 11:59","16/04/2021 12:01",87
769487691,2020,"16/04/2021 12:00","16/04/2021 12:02",80
779995035,2060,"16/04/2021 12:01","16/04/2021 12:02",82
753232233,2065,"16/04/2021 11:59","16/04/2021 12:02",184
779425868,2050,"16/04/2021 11:58","16/04/2021 12:03",258
778348023,2020,"16/04/2021 12:03","16/04/2021 12:04",71
712416646,2090,"16/04/2021 12:02","16/04/2021 12:06",231
114389211,2020,"16/04/2021 12:11","16/04/2021 12:11",19
777906363,2055,"16/04/2021 12:10","16/04/2021 12:13",153
772678006,2060,"16/04/2021 12:15","16/04/2021 12:16",87
710922985,2050,"16/04/2021 12:12","16/04/2021 12:18",312
772008018,2020,"16/04/2021 12:16","16/04/2021 12:19",161
767134113,2065,"16/04/2021 12:20","16/04/2021 12:24",218
778630907,2030,"16/04/2021 12:22","16/04/2021 12:25",138
773127350,2020,"16/04/2021 12:23","16/04/2021 12:26",222
768868645,2055,"16/04/2021 12:26","16/04/2021 12:29",166
760931501,2050,"16/04/2021 12:29","16/04/2021 12:32",169
702453041,2030,"16/04/2021 12:28","16/04/2021 12:35",370
772070781,2020,"16/04/2021 12:34","16/04/2021 12:35",35
114897373,2090,"16/04/2021 12:34","16/04/2021 12:35",72
711445500,2060,"16/04/2021 12:36","16/04/2021 12:38",90
760521441,2100,"16/04/2021 12:37","16/04/2021 12:39",131
789497000,2065,"16/04/2021 12:40","16/04/2021 12:42",119
334743793,2050,"16/04/2021 12:43","16/04/2021 12:44",36
717100501,2050,"16/04/2021 12:47","16/04/2021 12:51",248
714742050,2055,"16/04/2021 12:54","16/04/2021 12:56",100
778348023,2100,"16/04/2021 12:57","16/04/2021 12:59",106
704870196,2030,"16/04/2021 12:57","16/04/2021 13:01",221
766474506,2090,"16/04/2021 12:57","16/04/2021 13:02",288
713138745,2050,"16/04/2021 13:01","16/04/2021 13:02",34
778348023,2060,"16/04/2021 13:00","16/04/2021 13:02",159
715956646,2060,"16/04/2021 13:05","16/04/2021 13:06",86
779399963,2020,"16/04/2021 13:03","16/04/2021 13:06",201
766474506,2090,"16/04/2021 13:06","16/04/2021 13:07",67
754522599,2050,"16/04/2021 13:02","16/04/2021 13:08",355
702848574,2060,"16/04/2021 13:07","16/04/2021 13:10",169
772008018,2020,"16/04/2021 13:12","16/04/2021 13:14",89
776062671,2020,"16/04/2021 13:14","16/04/2021 13:15",91
741887219,2020,"16/04/2021 13:16","16/04/2021 13:17",82
741241251,2055,"16/04/2021 13:23","16/04/2021 13:24",65
722932455,2020,"16/04/2021 13:20","16/04/2021 13:24",212
214927211,2065,"16/04/2021 13:28","16/04/2021 13:29",112
773672711,2020,"16/04/2021 13:25","16/04/2021 13:30",286
214590426,2050,"16/04/2021 13:33","16/04/2021 13:33",30
777930541,2090,"16/04/2021 13:32","16/04/2021 13:34",70
773489569,2065,"16/04/2021 13:31","16/04/2021 13:35",239
760330497,2030,"16/04/2021 13:35","16/04/2021 13:36",29
717100501,2020,"16/04/2021 13:34","16/04/2021 13:36",139
773489569,2055,"16/04/2021 13:35","16/04/2021 13:36",57
777871557,2030,"16/04/2021 13:36","16/04/2021 13:38",96
775322477,2060,"16/04/2021 13:37","16/04/2021 13:40",169
719439064,2090,"16/04/2021 13:41","16/04/2021 13:42",80
715774233,2050,"16/04/2021 13:39","16/04/2021 13:45",344
772734287,2055,"16/04/2021 13:46","16/04/2021 13:47",71
770740645,2030,"16/04/2021 13:46","16/04/2021 13:48",132
779731639,2090,"16/04/2021 13:47","16/04/2021 13:49",100
716288960,2020,"16/04/2021 13:49","16/04/2021 13:52",148
772734287,2065,"16/04/2021 13:51","16/04/2021 13:52",42
385677955,2090,"16/04/2021 13:50","16/04/2021 13:52",97
772482121,2030,"16/04/2021 13:49","16/04/2021 13:52",223
715774233,2020,"16/04/2021 13:54","16/04/2021 13:56",112
776687337,2020,"16/04/2021 13:58","16/04/2021 13:59",65
776428796,2020,"16/04/2021 14:02","16/04/2021 14:05",221
788582424,2055,"16/04/2021 14:06","16/04/2021 14:08",145
770740645,2020,"16/04/2021 14:09","16/04/2021 14:13",190
777329763,2020,"16/04/2021 14:14","16/04/2021 14:16",99
760006740,2050,"16/04/2021 14:20","16/04/2021 14:22",63
775322477,2055,"16/04/2021 14:23","16/04/2021 14:23",47
773710809,2060,"16/04/2021 14:23","16/04/2021 14:24",61
112224051,2055,"16/04/2021 14:25","16/04/2021 14:26",65
774378769,2065,"16/04/2021 14:22","16/04/2021 14:26",252
724585207,2050,"16/04/2021 14:22","16/04/2021 14:26",260
777162007,2050,"16/04/2021 14:33","16/04/2021 14:34",56
710960968,2020,"16/04/2021 14:30","16/04/2021 14:34",273
776428796,2050,"16/04/2021 14:35","16/04/2021 14:39",250
741241251,2085,"16/04/2021 14:42","16/04/2021 14:43",40
770068499,2050,"16/04/2021 14:41","16/04/2021 14:44",210
777858706,2055,"16/04/2021 14:40","16/04/2021 14:45",262
114389212,2020,"16/04/2021 14:44","16/04/2021 14:45",36
772044570,2020,"16/04/2021 14:46","16/04/2021 14:47",57
771788216,2030,"16/04/2021 14:50","16/04/2021 14:50",36
773489569,2050,"16/04/2021 14:49","16/04/2021 14:51",150
768768198,2040,"16/04/2021 14:49","16/04/2021 14:54",296
768639291,2030,"16/04/2021 14:53","16/04/2021 14:57",268
764509445,2020,"16/04/2021 14:54","16/04/2021 14:57",204
772381280,2050,"16/04/2021 14:56","16/04/2021 14:59",198
729656710,2090,"16/04/2021 14:59","16/04/2021 15:00",96
773489569,2020,"16/04/2021 14:59","16/04/2021 15:01",98
674976211,2050,"16/04/2021 15:04","16/04/2021 15:04",49
703348449,2055,"16/04/2021 15:05","16/04/2021 15:05",27
767078395,2020,"16/04/2021 15:02","16/04/2021 15:05",227
760006740,2090,"16/04/2021 15:07","16/04/2021 15:08",65
112224051,2020,"16/04/2021 15:09","16/04/2021 15:11",152
778866819,2090,"16/04/2021 15:11","16/04/2021 15:12",48
114793700,2090,"16/04/2021 15:12","16/04/2021 15:14",126
714350555,2050,"16/04/2021 15:11","16/04/2021 15:14",205
773960961,2030,"16/04/2021 15:14","16/04/2021 15:16",99
324934211,2055,"16/04/2021 15:19","16/04/2021 15:20",37
778354953,2060,"16/04/2021 15:20","16/04/2021 15:21",52
715273228,2050,"16/04/2021 15:20","16/04/2021 15:23",186
772163253,2055,"16/04/2021 15:24","16/04/2021 15:25",60
715273228,2050,"16/04/2021 15:31","16/04/2021 15:31",24
774468424,2065,"16/04/2021 15:33","16/04/2021 15:33",35
712684450,2055,"16/04/2021 15:33","16/04/2021 15:35",131
344941490,2030,"16/04/2021 15:33","16/04/2021 15:36",181
718075195,2020,"16/04/2021 15:36","16/04/2021 15:39",167
114449990,2030,"16/04/2021 15:39","16/04/2021 15:39",31
704870196,2050,"16/04/2021 15:39","16/04/2021 15:41",150
779398018,2090,"16/04/2021 15:38","16/04/2021 15:42",240
412231511,2020,"16/04/2021 15:42","16/04/2021 15:43",38
776455845,2030,"16/04/2021 15:46","16/04/2021 15:47",4
718075195,2055,"16/04/2021 15:44","16/04/2021 15:47",183
779149545,2020,"16/04/2021 15:47","16/04/2021 15:50",216
712461605,2030,"16/04/2021 15:52","16/04/2021 15:53",53
718075195,2055,"16/04/2021 15:52","16/04/2021 15:53",57
769891560,2060,"16/04/2021 15:53","16/04/2021 15:57",193
741241251,2050,"16/04/2021 15:57","16/04/2021 15:59",117
214923559,2020,"16/04/2021 16:00","16/04/2021 16:00",34
779149545,2090,"16/04/2021 16:04","16/04/2021 16:06",90
776104693,2055,"16/04/2021 16:03","16/04/2021 16:07",222
779210514,2030,"16/04/2021 16:07","16/04/2021 16:09",146
714350555,2055,"16/04/2021 16:08","16/04/2021 16:10",77
716288960,2020,"16/04/2021 16:08","16/04/2021 16:11",151
774841505,2100,"16/04/2021 16:10","16/04/2021 16:14",201
914927900,2055,"16/04/2021 16:15","16/04/2021 16:16",92
741241251,2050,"16/04/2021 16:15","16/04/2021 16:17",84
718075195,2030,"16/04/2021 16:18","16/04/2021 16:23",303
767123392,2050,"16/04/2021 16:19","16/04/2021 16:24",306
773470245,2055,"16/04/2021 16:24","16/04/2021 16:29",283
774841505,2020,"16/04/2021 16:32","16/04/2021 16:33",72
212226016,2055,"16/04/2021 16:33","16/04/2021 16:33",31
770669143,2100,"16/04/2021 16:30","16/04/2021 16:34",267
779853148,2030,"16/04/2021 16:33","16/04/2021 16:34",85
776861220,2020,"16/04/2021 16:36","16/04/2021 16:37",49
712461605,2055,"16/04/2021 16:36","16/04/2021 16:39",166
701868402,2055,"16/04/2021 16:41","16/04/2021 16:42",76
777329763,2020,"16/04/2021 16:49","16/04/2021 16:51",86
777875434,2055,"16/04/2021 16:49","16/04/2021 16:51",102
741241251,2050,"16/04/2021 16:57","16/04/2021 16:58",55
112256175,2020,"16/04/2021 16:57","16/04/2021 16:58",59
774414896,2020,"16/04/2021 16:59","16/04/2021 17:01",77
112875230,2090,"16/04/2021 16:59","16/04/2021 17:01",78
778630907,2020,"16/04/2021 17:02","16/04/2021 17:02",27
712457274,2050,"16/04/2021 17:04","16/04/2021 17:08",244
764285033,2020,"16/04/2021 17:06","16/04/2021 17:08",141
713661546,2090,"16/04/2021 17:07","16/04/2021 17:09",75
718016899,2090,"16/04/2021 17:09","16/04/2021 17:15",342
712457274,2090,"16/04/2021 17:18","16/04/2021 17:20",107
768139124,2020,"16/04/2021 17:18","16/04/2021 17:22",241
761405127,2090,"16/04/2021 17:20","16/04/2021 17:25",303
777595412,2020,"16/04/2021 17:26","16/04/2021 17:26",4
654976211,2020,"16/04/2021 17:26","16/04/2021 17:27",51
777595412,2020,"16/04/2021 17:27","16/04/2021 17:31",212
772309098,2090,"16/04/2021 17:28","16/04/2021 17:32",210
773749130,2020,"16/04/2021 17:33","16/04/2021 17:34",56
765558903,2090,"16/04/2021 17:32","16/04/2021 17:36",231
750205308,2020,"16/04/2021 17:35","16/04/2021 17:39",243
769261872,2090,"16/04/2021 17:39","16/04/2021 17:42",175
712991884,2050,"16/04/2021 17:39","16/04/2021 17:43",263
773558303,2090,"16/04/2021 17:44","16/04/2021 17:46",149
771060215,2050,"16/04/2021 17:46","16/04/2021 17:49",180
770695716,2090,"16/04/2021 17:46","16/04/2021 17:50",212
777881767,2090,"16/04/2021 17:55","16/04/2021 17:59",202
768139124,2050,"16/04/2021 18:02","16/04/2021 18:03",43
771060215,2090,"16/04/2021 18:07","16/04/2021 18:08",65
714408497,2090,"16/04/2021 18:10","16/04/2021 18:15",306
770646645,2050,"16/04/2021 18:16","16/04/2021 18:17",67
715816918,2020,"16/04/2021 18:14","16/04/2021 18:20",311
768139124,2050,"16/04/2021 18:22","16/04/2021 18:25",152
712190852,2090,"16/04/2021 18:23","16/04/2021 18:27",237
765428409,2050,"16/04/2021 18:25","16/04/2021 18:28",172
776902412,2090,"16/04/2021 18:27","16/04/2021 18:30",185
715816918,2050,"16/04/2021 18:31","16/04/2021 18:33",133
714408497,2090,"16/04/2021 18:36","16/04/2021 18:36",39
705850391,2050,"16/04/2021 18:33","16/04/2021 18:37",233
703065355,2020,"16/04/2021 18:37","16/04/2021 18:38",48
774468424,2020,"16/04/2021 18:38","16/04/2021 18:39",59
703065355,2090,"16/04/2021 18:39","16/04/2021 18:44",294
718485690,2050,"16/04/2021 18:42","16/04/2021 18:45",207
717372350,2020,"16/04/2021 18:45","16/04/2021 18:48",198
774432235,2020,"16/04/2021 18:48","16/04/2021 18:48",1
773758612,2050,"16/04/2021 18:52","16/04/2021 18:55",196
774474895,2020,"16/04/2021 18:54","16/04/2021 18:55",93
112905173,2020,"16/04/2021 18:55","16/04/2021 18:56",80
777005990,2020,"16/04/2021 18:57","16/04/2021 18:57",52
774432235,2020,"16/04/2021 18:58","16/04/2021 18:59",41
765428409,2020,"16/04/2021 19:02","16/04/2021 19:03",84
715121441,2095,"16/04/2021 19:08","16/04/2021 19:13",283
773245336,2050,"16/04/2021 19:11","16/04/2021 19:17",345
716822146,2090,"16/04/2021 19:15","16/04/2021 19:19",241
778197432,2095,"16/04/2021 19:18","16/04/2021 19:22",226
778322607,2095,"16/04/2021 19:24","16/04/2021 19:27",159
712190852,2090,"16/04/2021 19:26","16/04/2021 19:27",83
714325560,2090,"16/04/2021 19:31","16/04/2021 19:32",71
718032948,2020,"16/04/2021 19:31","16/04/2021 19:33",92
718485690,2050,"16/04/2021 19:32","16/04/2021 19:34",80
718032948,2020,"16/04/2021 19:34","16/04/2021 19:35",65
719009915,2095,"16/04/2021 19:32","16/04/2021 19:36",233
719001833,2050,"16/04/2021 19:34","16/04/2021 19:37",158
770740692,2090,"16/04/2021 19:37","16/04/2021 19:37",30
766260265,2090,"16/04/2021 19:40","16/04/2021 19:40",29
714325560,2095,"16/04/2021 19:44","16/04/2021 19:47",189
778322607,2095,"16/04/2021 19:48","16/04/2021 19:49",50
714143637,2050,"16/04/2021 19:51","16/04/2021 19:53",145
718485690,2050,"16/04/2021 19:57","16/04/2021 19:58",56
718866356,2050,"16/04/2021 20:03","16/04/2021 20:07",194
773245336,2050,"16/04/2021 20:08","16/04/2021 20:14",354
773013059,2095,"16/04/2021 20:11","16/04/2021 20:14",178
778322607,2095,"16/04/2021 20:19","16/04/2021 20:24",311
718866356,2095,"16/04/2021 20:25","16/04/2021 20:26",42
777168996,2050,"16/04/2021 20:23","16/04/2021 20:28",247
773124417,2095,"16/04/2021 20:26","16/04/2021 20:29",191
774414294,2050,"16/04/2021 20:31","16/04/2021 20:31",2
773758612,2095,"16/04/2021 20:34","16/04/2021 20:35",86
719001833,2050,"16/04/2021 20:32","16/04/2021 20:35",209
760484007,2050,"16/04/2021 20:37","16/04/2021 20:43",329
719341857,2095,"16/04/2021 20:38","16/04/2021 20:43",299
702867139,2095,"16/04/2021 20:47","16/04/2021 20:51",223
718353915,2095,"16/04/2021 20:55","16/04/2021 21:04",529
773758612,2095,"16/04/2021 21:07","16/04/2021 21:09",113
777001342,2050,"16/04/2021 21:06","16/04/2021 21:10",266
711614585,2095,"16/04/2021 21:11","16/04/2021 21:13",82
769487691,2095,"16/04/2021 21:17","16/04/2021 21:20",215
779462992,2050,"16/04/2021 21:19","16/04/2021 21:22",139
714325560,2095,"16/04/2021 21:24","16/04/2021 21:24",44
778149267,2050,"16/04/2021 21:30","16/04/2021 21:31",72
776187887,2095,"16/04/2021 21:35","16/04/2021 21:35",53
786348668,2095,"16/04/2021 21:37","16/04/2021 21:41",232
778149267,2095,"16/04/2021 21:44","16/04/2021 21:46",80
778322607,2050,"16/04/2021 21:35","16/04/2021 21:47",726
769487691,2050,"16/04/2021 22:08","16/04/2021 22:11",161
773368801,2050,"16/04/2021 22:24","16/04/2021 22:26",151
772344681,2050,"16/04/2021 22:36","16/04/2021 22:37",98
714325560,2095,"16/04/2021 23:29","16/04/2021 23:31",158
777123725,2050,"16/04/2021 23:36","16/04/2021 23:39",154
767744847,2050,"16/04/2021 23:42","16/04/2021 23:45",152
