Datetime,"Caller Number"
"06/04/2021 07:38",773658174
"06/04/2021 08:20",812210456
"06/04/2021 08:39",787916672
"06/04/2021 08:42",769874419
"06/04/2021 08:48",779951237
"06/04/2021 08:50",112200300
"06/04/2021 08:53",114793700
"06/04/2021 08:55",714960533
"06/04/2021 09:00",114793700
"06/04/2021 09:29",760425566
"06/04/2021 09:36",112246625
"06/04/2021 09:46",716804868
"06/04/2021 10:25",781478414
"06/04/2021 11:09",716086590
"06/04/2021 11:18",774479233
"06/04/2021 11:23",774479233
"06/04/2021 12:04",773161016
"06/04/2021 12:25",114793700
"06/04/2021 12:28",778403850
"06/04/2021 12:29",776760392
"06/04/2021 12:29",712028594
"06/04/2021 12:41",115238117
"06/04/2021 12:47",718468084
"06/04/2021 13:07",761178552
"06/04/2021 13:08",717303567
"06/04/2021 13:14",716126102
"06/04/2021 13:16",244976211
"06/04/2021 13:43",754651931
"06/04/2021 13:51",777755907
"06/04/2021 13:52",777957123
"06/04/2021 13:54",716346273
"06/04/2021 14:01",764043245
"06/04/2021 14:05",788150503
"06/04/2021 14:06",762376208
"06/04/2021 14:08",760976758
"06/04/2021 14:08",788150503
"06/04/2021 14:15",770740298
"06/04/2021 14:24",776770535
"06/04/2021 15:13",778885555
"06/04/2021 15:14",763708490
"06/04/2021 15:29",774410776
"06/04/2021 15:47",716086590
"06/04/2021 15:49",716086590
"06/04/2021 16:42",763778015
"06/04/2021 16:44",718693283
"06/04/2021 16:52",718239471
"06/04/2021 17:06",710434926
"06/04/2021 17:09",772369106
"06/04/2021 17:18",777618236
"06/04/2021 17:19",912233877
"06/04/2021 17:19",912233877
"06/04/2021 17:19",766106339
"06/04/2021 17:24",777157143
"06/04/2021 17:25",719371484
"06/04/2021 17:27",777382390
"06/04/2021 17:49",788640463
"06/04/2021 17:49",788640463
"06/04/2021 17:50",788640463
"06/04/2021 17:51",788640463
"06/04/2021 17:54",779695335
"07/04/2021 08:29",718102770
"07/04/2021 08:37",718102770
"07/04/2021 08:52",777530549
"07/04/2021 09:09",712510305
"07/04/2021 09:09",716412274
"07/04/2021 09:10",114324406
"07/04/2021 09:10",773273494
"07/04/2021 09:11",777269623
"07/04/2021 09:12",773273494
"07/04/2021 09:13",772858956
"07/04/2021 09:14",723706177
"07/04/2021 09:15",723706177
"07/04/2021 09:22",778322607
"07/04/2021 09:23",776175585
"07/04/2021 09:25",412221260
"07/04/2021 09:26",771093790
"07/04/2021 09:29",710655889
"07/04/2021 09:29",714654629
"07/04/2021 09:30",772710271
"07/04/2021 10:06",755903356
"07/04/2021 11:04",715301497
"07/04/2021 11:05",772039409
"07/04/2021 11:06",771830445
"07/04/2021 11:09",715301497
"07/04/2021 11:24",702776301
"07/04/2021 11:24",772039409
"07/04/2021 11:29",717674646
"07/04/2021 11:52",777718565
"07/04/2021 11:52",740793357
"07/04/2021 11:54",772044570
"07/04/2021 11:55",777859815
"07/04/2021 11:56",777718565
"07/04/2021 11:57",740793357
"07/04/2021 11:57",777718565
"07/04/2021 11:59",777421873
"07/04/2021 12:03",770355689
"07/04/2021 12:37",777718565
"07/04/2021 12:38",771151031
"07/04/2021 12:43",777718565
"07/04/2021 12:44",112684834
"07/04/2021 12:45",703144058
"07/04/2021 12:55",114793700
"07/04/2021 13:02",774489949
"07/04/2021 13:13",777581224
"07/04/2021 13:58",741887219
"07/04/2021 14:52",772369106
"07/04/2021 14:52",768202959
"07/04/2021 14:57",773414194
"07/04/2021 15:16",777573272
"07/04/2021 15:49",779576308
"07/04/2021 15:53",774924617
"07/04/2021 15:53",772039409
"07/04/2021 15:55",114389595
"07/04/2021 15:55",711813775
"07/04/2021 16:01",912233877
"07/04/2021 16:20",716116464
"07/04/2021 16:43",771154849
"07/04/2021 19:36",777119970
"07/04/2021 19:38",714999222
"07/04/2021 19:39",777119970
"07/04/2021 19:39",774474096
"07/04/2021 19:48",770382712
"07/04/2021 19:49",770382712
"07/04/2021 19:50",770382712
"07/04/2021 20:01",767444418
"07/04/2021 20:28",765739454
"07/04/2021 21:27",767111671
"08/04/2021 07:02",778976030
"08/04/2021 09:18",776437357
"08/04/2021 09:25",779859380
"08/04/2021 09:38",714034034
"08/04/2021 09:52",114897373
"08/04/2021 09:54",773161016
"08/04/2021 10:05",774384417
"08/04/2021 10:10",702787500
"08/04/2021 10:48",412231511
"08/04/2021 11:02",776788259
"08/04/2021 11:03",770740298
"08/04/2021 11:34",773261083
"08/04/2021 11:35",760017353
"08/04/2021 12:32",771934945
"08/04/2021 13:09",765671655
"08/04/2021 13:50",767462853
"08/04/2021 14:33",112729405
"08/04/2021 14:46",712597860
"08/04/2021 14:55",772315567
"08/04/2021 15:11",774981664
"08/04/2021 15:31",789180878
"08/04/2021 15:47",770740298
"08/04/2021 16:26",778028677
"08/04/2021 16:39",764270427
"08/04/2021 19:51",766603981
"08/04/2021 19:57",774468198
"08/04/2021 21:03",777806095
"08/04/2021 21:06",777806095
"08/04/2021 22:02",701040315
"08/04/2021 23:16",715275397
"09/04/2021 02:09",740558506
"09/04/2021 02:45",770382712
"09/04/2021 02:46",770382712
"09/04/2021 02:47",770382712
"09/04/2021 04:51",772344681
"09/04/2021 06:58",702322215
"09/04/2021 07:22",775916517
"09/04/2021 07:24",773132030
"09/04/2021 07:29",769865016
"09/04/2021 07:45",777236294
"09/04/2021 07:46",771000706
"09/04/2021 07:56",777373638
"09/04/2021 07:56",752932555
"09/04/2021 07:57",772678369
"09/04/2021 08:06",770591541
"09/04/2021 08:46",787234709
"09/04/2021 08:46",707583358
"09/04/2021 08:47",718133363
"09/04/2021 08:55",718133363
"09/04/2021 09:17",766796416
"09/04/2021 09:27",774345036
"09/04/2021 09:29",114677000
"09/04/2021 09:29",761190191
"09/04/2021 09:30",777309103
"09/04/2021 09:35",777309103
"09/04/2021 09:52",713249990
"09/04/2021 10:02",718115526
"09/04/2021 10:04",714770124
"09/04/2021 10:08",714770124
"09/04/2021 10:10",773795443
"09/04/2021 10:10",752913412
"09/04/2021 10:13",770740298
"09/04/2021 10:24",774345036
"09/04/2021 10:34",772075158
"09/04/2021 10:59",711848323
"09/04/2021 11:13",114897373
"09/04/2021 11:14",372224142
"09/04/2021 11:30",772462305
"09/04/2021 11:34",324925603
"09/04/2021 11:37",770584718
"09/04/2021 11:43",774304308
"09/04/2021 12:08",771183806
"09/04/2021 12:14",717631831
"09/04/2021 12:15",716804868
"09/04/2021 12:26",718437492
"09/04/2021 12:29",718437492
"09/04/2021 12:49",755342599
"09/04/2021 13:03",724412223
"09/04/2021 13:05",763331210
"09/04/2021 13:06",752374844
"09/04/2021 13:16",262234383
"09/04/2021 13:17",769490845
"09/04/2021 13:19",772229885
"09/04/2021 13:21",777767704
"09/04/2021 13:28",772229885
"09/04/2021 13:29",714424242
"09/04/2021 13:29",772229885
"09/04/2021 13:51",114793700
"09/04/2021 13:52",716891003
"09/04/2021 13:55",771524666
"09/04/2021 13:55",753663580
"09/04/2021 13:56",716341698
"09/04/2021 13:58",344941490
"09/04/2021 13:59",771524666
"09/04/2021 14:08",752220739
"09/04/2021 14:09",773358046
"09/04/2021 14:35",767315122
"09/04/2021 14:38",767785241
"09/04/2021 15:19",712289192
"09/04/2021 15:26",711137511
"09/04/2021 15:27",713705808
"09/04/2021 15:27",770832321
"09/04/2021 15:29",770832321
"09/04/2021 15:32",713687888
"09/04/2021 15:33",777841462
"09/04/2021 16:35",712986060
"09/04/2021 16:43",777649610
"09/04/2021 16:44",772309098
"09/04/2021 16:44",778322607
"09/04/2021 16:45",778322607
"09/04/2021 17:25",721868189
"09/04/2021 17:28",770697826
"09/04/2021 17:32",740802844
"09/04/2021 17:32",777060914
"09/04/2021 17:35",740802844
"09/04/2021 17:40",712343941
"09/04/2021 17:47",773239280
"09/04/2021 17:57",764703406
"09/04/2021 18:07",776861220
"09/04/2021 18:21",786636310
"09/04/2021 19:00",715339989
"09/04/2021 19:48",768048138
"09/04/2021 19:49",754446480
"09/04/2021 19:58",767078395
"09/04/2021 20:08",776611756
"09/04/2021 20:37",766914939
"09/04/2021 21:31",774304308
"09/04/2021 21:37",765843824
"09/04/2021 21:42",765843824
"09/04/2021 21:49",711468180
"09/04/2021 22:11",758933558
"10/04/2021 04:56",706000551
"10/04/2021 08:16",717026797
"10/04/2021 08:17",717409529
"10/04/2021 09:22",662226571
"10/04/2021 09:44",711920863
"10/04/2021 10:01",707877871
"10/04/2021 10:05",776455845
"10/04/2021 10:05",711197904
"10/04/2021 11:42",773620735
"10/04/2021 13:04",766891301
"10/04/2021 13:13",776436692
"10/04/2021 13:35",715429700
"10/04/2021 13:50",775003581
"10/04/2021 15:40",712690884
"10/04/2021 15:46",717939974
"10/04/2021 16:46",777316847
"10/04/2021 19:11",762889414
"10/04/2021 20:01",787244192
"10/04/2021 22:00",778890000
"10/04/2021 22:24",718915562
"11/04/2021 07:59",777657654
"11/04/2021 10:56",771313757
"11/04/2021 12:14",776004492
"11/04/2021 14:03",776663438
"11/04/2021 14:56",771175526
"11/04/2021 17:52",719249256
"11/04/2021 18:41",719249256
"11/04/2021 18:53",773280179
"11/04/2021 19:00",773280179
"11/04/2021 19:46",774474096
"11/04/2021 21:04",777332155
"11/04/2021 21:07",761389308
"11/04/2021 21:10",741268844
"11/04/2021 21:11",761389308
"12/04/2021 07:07",712782098
"12/04/2021 08:42",114793700
"12/04/2021 08:50",774913678
"12/04/2021 09:00",768048138
"12/04/2021 09:11",777769242
"12/04/2021 09:39",717553535
"12/04/2021 09:39",725338160
"12/04/2021 10:11",714418706
"12/04/2021 10:12",776152211
"12/04/2021 10:12",773545444
"12/04/2021 10:17",773545444
"12/04/2021 10:17",725338160
"12/04/2021 10:22",777771003
"12/04/2021 10:37",773545444
"12/04/2021 10:37",214923559
"12/04/2021 10:39",718202561
"12/04/2021 10:40",114389211
"12/04/2021 10:49",112437900
"12/04/2021 10:52",775833377
"12/04/2021 10:54",775833377
"12/04/2021 10:54",767092002
"12/04/2021 10:54",775833377
"12/04/2021 10:56",702119170
"12/04/2021 10:58",775833377
"12/04/2021 11:02",712809052
"12/04/2021 11:03",714089886
"12/04/2021 11:03",715511936
"12/04/2021 11:05",775006419
"12/04/2021 11:11",767092002
"12/04/2021 11:11",767092002
"12/04/2021 11:12",775011549
"12/04/2021 11:13",769951329
"12/04/2021 12:07",718586116
"12/04/2021 12:12",114676700
"12/04/2021 12:15",762994094
"12/04/2021 12:19",776455845
"12/04/2021 12:20",776455845
"12/04/2021 12:55",711781462
"12/04/2021 12:56",768114361
"12/04/2021 13:05",718026272
"12/04/2021 13:05",774414896
"12/04/2021 13:53",776449205
"12/04/2021 13:54",112098158
"12/04/2021 14:14",779179099
"12/04/2021 14:31",715339989
"12/04/2021 14:34",715339989
"12/04/2021 14:35",715339989
"12/04/2021 14:47",112875230
"12/04/2021 14:51",779720202
"12/04/2021 15:10",777771003
"12/04/2021 15:11",771788216
"12/04/2021 15:12",771788216
"12/04/2021 15:12",767248035
"12/04/2021 15:13",779720202
"12/04/2021 15:15",264931067
"12/04/2021 15:18",768116039
"12/04/2021 15:19",768213395
"12/04/2021 15:23",768213395
"12/04/2021 15:44",768116039
"12/04/2021 15:48",740112547
"12/04/2021 15:56",771080564
"12/04/2021 15:58",771080564
"12/04/2021 16:02",714654776
"12/04/2021 16:06",773204461
"12/04/2021 16:10",773204461
"12/04/2021 16:27",753997000
"12/04/2021 16:28",716531601
"12/04/2021 16:54",777572709
"12/04/2021 17:07",710830868
"12/04/2021 17:28",769820963
"12/04/2021 17:49",753370224
"12/04/2021 17:50",322256321
"12/04/2021 18:03",776788259
"12/04/2021 18:07",740558506
"12/04/2021 18:22",773142207
"12/04/2021 18:28",702127258
"12/04/2021 18:33",769042992
"12/04/2021 19:57",765585745
"13/04/2021 02:25",779651248
"13/04/2021 09:58",777883259
"13/04/2021 11:41",772389420
"13/04/2021 11:50",702711173
"13/04/2021 12:30",771788216
"13/04/2021 13:18",761815134
"13/04/2021 13:47",761374363
"13/04/2021 14:33",761194569
"13/04/2021 15:55",761381870
"13/04/2021 18:00",761037173
"13/04/2021 18:31",703108524
"13/04/2021 18:45",776652496
"13/04/2021 18:45",715743431
"13/04/2021 18:48",776652496
"13/04/2021 18:54",764863801
"13/04/2021 19:00",779711963
"13/04/2021 22:40",773575516
"14/04/2021 02:15",776950410
"14/04/2021 10:11",716960794
"14/04/2021 12:08",703607307
"14/04/2021 15:17",740001751
"14/04/2021 15:23",772201124
"14/04/2021 16:30",761629901
"14/04/2021 17:23",778354953
"14/04/2021 17:35",779731639
"14/04/2021 17:43",760330497
"14/04/2021 18:08",713151824
"14/04/2021 18:51",715180206
"14/04/2021 18:52",774200334
"14/04/2021 19:07",767398035
"14/04/2021 19:47",777273687
"14/04/2021 19:48",772368391
"14/04/2021 19:51",772368391
"14/04/2021 19:53",761527479
"14/04/2021 19:57",772852241
"14/04/2021 20:03",772852241
"14/04/2021 20:07",772368391
"14/04/2021 20:11",715457062
"14/04/2021 20:11",761527479
"14/04/2021 20:15",715457062
"14/04/2021 20:26",752894929
"14/04/2021 20:27",769865016
"14/04/2021 20:32",761527479
"14/04/2021 20:34",764866091
"14/04/2021 20:36",761527479
"14/04/2021 20:38",776707624
"14/04/2021 20:40",777815161
"14/04/2021 20:40",718947049
"14/04/2021 20:42",770278049
"14/04/2021 20:44",769865016
"14/04/2021 20:53",768085111
"14/04/2021 20:57",768085111
"14/04/2021 22:40",761374363
"14/04/2021 23:19",775184690
"15/04/2021 05:22",779210514
"15/04/2021 07:05",706358872
"15/04/2021 07:22",741241251
"15/04/2021 07:27",773121399
"15/04/2021 07:30",773121399
"15/04/2021 08:32",789199553
"15/04/2021 08:37",752041984
"15/04/2021 09:11",777577911
"15/04/2021 09:38",717318949
"15/04/2021 09:44",777376575
"15/04/2021 09:47",771788216
"15/04/2021 10:15",214923559
"15/04/2021 11:20",767112026
"15/04/2021 11:21",773558303
"15/04/2021 11:38",781828228
"15/04/2021 13:12",774707944
"15/04/2021 13:15",779442297
"15/04/2021 13:29",769865016
"15/04/2021 13:30",769865016
"15/04/2021 14:14",322252041
"15/04/2021 14:37",701743782
"15/04/2021 15:07",112374655
"15/04/2021 15:44",770046030
"15/04/2021 17:12",773116818
"15/04/2021 17:13",717119624
"15/04/2021 17:19",777033660
"15/04/2021 17:19",711290448
"15/04/2021 17:26",763028614
"15/04/2021 17:32",763580588
"15/04/2021 17:33",774061547
"15/04/2021 17:55",718085086
"15/04/2021 18:12",773218902
"15/04/2021 19:02",760330497
