Datetime,"Caller Number"
"01/01/2021 08:34",772635030
"01/01/2021 09:11",717075472
"01/01/2021 09:20",814976211
"01/01/2021 09:29",717075472
"01/01/2021 09:33",264931100
"01/01/2021 09:38",718088699
"01/01/2021 09:41",775269900
"01/01/2021 09:45",775269900
"01/01/2021 09:52",752208401
"01/01/2021 09:53",768689703
"01/01/2021 10:01",714890785
"01/01/2021 10:27",772878793
"01/01/2021 10:29",572246533
"01/01/2021 10:38",701187121
"01/01/2021 10:46",717329009
"01/01/2021 10:47",717329009
"01/01/2021 10:51",778299247
"01/01/2021 10:54",767745564
"01/01/2021 11:00",719804712
"01/01/2021 11:02",718333838
"01/01/2021 11:10",769891936
"01/01/2021 11:13",779127447
"01/01/2021 11:14",779127447
"01/01/2021 11:15",332228058
"01/01/2021 11:47",776139886
"01/01/2021 11:48",710171603
"01/01/2021 11:49",713158510
"01/01/2021 12:01",773292338
"01/01/2021 12:15",718088699
"01/01/2021 12:19",702857830
"01/01/2021 12:55",779705926
"01/01/2021 13:01",767069202
"01/01/2021 13:37",771372727
"01/01/2021 13:42",773202694
"01/01/2021 13:49",773470349
"01/01/2021 13:56",718088699
"01/01/2021 14:02",702244483
"01/01/2021 14:03",702244483
"01/01/2021 14:09",814940273
"01/01/2021 14:09",334932515
"01/01/2021 14:13",114449990
"01/01/2021 14:24",334743703
"01/01/2021 15:06",788491080
"01/01/2021 15:07",706107207
"01/01/2021 15:12",114329267
"01/01/2021 16:02",705571618
"01/01/2021 16:07",705571618
"01/01/2021 16:08",781212025
"04/01/2021 08:38",114334470
"04/01/2021 08:40",756878580
"04/01/2021 08:41",114334470
"04/01/2021 08:41",454928838
"04/01/2021 08:42",114334470
"04/01/2021 08:44",712434159
"04/01/2021 08:46",756878580
"04/01/2021 08:50",354976211
"04/01/2021 08:50",112984772
"04/01/2021 08:54",714399020
"04/01/2021 08:55",776505009
"04/01/2021 08:55",777900455
"04/01/2021 08:57",711336323
"04/01/2021 09:02",776441612
"04/01/2021 09:04",773830899
"04/01/2021 09:06",112931314
"04/01/2021 09:12",776382456
"04/01/2021 09:13",778273233
"04/01/2021 09:14",771686298
"04/01/2021 09:15",767087929
"04/01/2021 09:16",814976211
"04/01/2021 09:17",814976211
"04/01/2021 09:17",454928838
"04/01/2021 09:17",705571618
"04/01/2021 09:19",114334470
"04/01/2021 09:20",705799643
"04/01/2021 09:23",454928838
"04/01/2021 09:25",254928741
"04/01/2021 09:28",711816464
"04/01/2021 09:29",711008183
"04/01/2021 09:30",112239592
"04/01/2021 09:34",777843401
"04/01/2021 09:35",710292638
"04/01/2021 09:36",112539187
"04/01/2021 09:37",914946429
"04/01/2021 09:39",710292638
"04/01/2021 09:41",705799643
"04/01/2021 09:42",912230870
"04/01/2021 09:44",716144369
"04/01/2021 09:45",777843401
"04/01/2021 09:48",702892537
"04/01/2021 09:49",912230870
"04/01/2021 09:51",114456000
"04/01/2021 09:57",776354374
"04/01/2021 09:59",772878793
"04/01/2021 10:00",768475628
"04/01/2021 10:01",773335733
"04/01/2021 10:02",772539801
"04/01/2021 10:03",770116166
"04/01/2021 10:03",768475628
"04/01/2021 10:03",274976211
"04/01/2021 10:06",717312074
"04/01/2021 10:07",717312074
"04/01/2021 10:07",00773946552
"04/01/2021 10:10",705272490
"04/01/2021 10:12",552224260
"04/01/2021 10:14",702261620
"04/01/2021 10:17",779252321
"04/01/2021 10:20",728687354
"04/01/2021 10:21",717084009
"04/01/2021 10:22",112747888
"04/01/2021 10:22",117740000
"04/01/2021 10:30",705272490
"04/01/2021 10:31",114377620
"04/01/2021 10:31",711760127
"04/01/2021 10:33",785341546
"04/01/2021 10:33",354976211
"04/01/2021 10:35",711922983
"04/01/2021 10:37",785341546
"04/01/2021 10:37",779907779
"04/01/2021 10:40",705571618
"04/01/2021 10:44",452261695
"04/01/2021 10:45",112747888
"04/01/2021 10:46",755041116
"04/01/2021 10:53",777980468
"04/01/2021 10:55",712470055
"04/01/2021 10:55",786219695
"04/01/2021 10:55",712470055
"04/01/2021 10:58",712470055
"04/01/2021 10:59",772188261
"04/01/2021 10:59",914946429
"04/01/2021 11:03",703295908
"04/01/2021 11:03",756733056
"04/01/2021 11:03",114331019
"04/01/2021 11:06",715640443
"04/01/2021 11:06",712434159
"04/01/2021 11:10",773155502
"04/01/2021 11:10",474935211
"04/01/2021 11:12",773155502
"04/01/2021 11:12",761374453
"04/01/2021 11:15",703295908
"04/01/2021 11:17",718331808
"04/01/2021 11:19",777196675
"04/01/2021 11:22",772188261
"04/01/2021 11:23",772188261
"04/01/2021 11:24",712370894
"04/01/2021 11:25",716733595
"04/01/2021 11:31",710798955
"04/01/2021 11:31",727076783
"04/01/2021 11:33",114347239
"04/01/2021 11:34",114883883
"04/01/2021 11:36",716677231
"04/01/2021 11:37",114347239
"04/01/2021 11:39",727076783
"04/01/2021 11:46",114389211
"04/01/2021 11:48",701013584
"04/01/2021 11:50",454935034
"04/01/2021 11:50",274976211
"04/01/2021 11:51",114347239
"04/01/2021 11:56",552224260
"04/01/2021 12:05",763890490
"04/01/2021 12:07",773481468
"04/01/2021 12:09",634976211
"04/01/2021 12:10",754440440
"04/01/2021 12:15",778273233
"04/01/2021 12:16",779143178
"04/01/2021 12:17",753554157
"04/01/2021 12:21",718939110
"04/01/2021 12:23",814940273
"04/01/2021 12:25",914946421
"04/01/2021 12:26",332256210
"04/01/2021 12:28",775900849
"04/01/2021 12:34",768282269
"04/01/2021 12:42",264931100
"04/01/2021 12:42",712370894
"04/01/2021 12:43",344200103
"04/01/2021 12:44",727076783
"04/01/2021 12:46",344200103
"04/01/2021 12:51",664976211
"04/01/2021 12:57",112529246
"04/01/2021 12:58",112529246
"04/01/2021 13:06",717538107
"04/01/2021 13:12",710798955
"04/01/2021 13:13",773174704
"04/01/2021 13:13",778506443
"04/01/2021 13:15",552257295
"04/01/2021 13:17",710798955
"04/01/2021 13:17",768555632
"04/01/2021 13:19",354976211
"04/01/2021 13:29",768233855
"04/01/2021 13:29",710798955
"04/01/2021 13:30",912235685
"04/01/2021 13:30",332238222
"04/01/2021 13:35",778589122
"04/01/2021 13:36",778589122
"04/01/2021 13:41",114543793
"04/01/2021 13:41",778589122
"04/01/2021 13:42",472225494
"04/01/2021 13:45",117270707
"04/01/2021 13:57",702009758
"04/01/2021 14:06",703655780
"04/01/2021 14:08",766498723
"04/01/2021 14:08",783669888
"04/01/2021 14:10",775535336
"04/01/2021 14:10",334944626
"04/01/2021 14:13",314743793
"04/01/2021 14:13",716218550
"04/01/2021 14:14",757441644
"04/01/2021 14:16",773202694
"04/01/2021 14:22",777461947
"04/01/2021 14:23",710605206
"04/01/2021 14:24",776204624
"04/01/2021 14:25",710605206
"04/01/2021 14:27",718859004
"04/01/2021 14:31",114389211
"04/01/2021 14:33",914946421
"04/01/2021 14:37",778273233
"04/01/2021 14:54",766672744
"04/01/2021 15:03",717914113
"04/01/2021 15:03",712400473
"04/01/2021 15:05",112529666
"04/01/2021 15:05",716690602
"04/01/2021 15:08",112529666
"04/01/2021 15:09",757673258
"04/01/2021 15:11",716870388
"04/01/2021 15:12",718859004
"04/01/2021 15:13",718859004
"04/01/2021 15:15",114389212
"04/01/2021 15:15",112300479
"04/01/2021 15:16",777270799
"04/01/2021 15:17",112529666
"04/01/2021 15:22",773343420
"04/01/2021 15:23",777320810
"04/01/2021 15:23",716690602
"04/01/2021 15:25",114676700
"04/01/2021 15:27",777320810
"04/01/2021 15:29",777320810
"04/01/2021 15:32",112094188
"04/01/2021 15:37",710732816
"04/01/2021 15:38",914946521
"04/01/2021 15:41",214927211
"04/01/2021 15:45",769678288
"04/01/2021 15:51",114712934
"04/01/2021 15:53",777989923
"04/01/2021 15:59",785341546
"04/01/2021 16:04",352243241
"04/01/2021 16:05",254934593
"04/01/2021 16:07",768555632
"04/01/2021 16:10",712394396
"04/01/2021 16:26",114693205
