Datetime,"Caller Number"
"11/06/2019 07:38",774167284
"11/06/2019 07:39",774167284
"11/06/2019 07:58",704890781
"11/06/2019 08:03",779375445
"11/06/2019 08:24",704890781
"11/06/2019 08:40",756788001
"11/06/2019 08:44",729830618
"11/06/2019 08:57",776398841
"11/06/2019 09:14",718084553
"11/06/2019 09:16",814940273
"11/06/2019 09:22",114883883
"11/06/2019 09:46",112889456
"11/06/2019 09:48",114320849
"11/06/2019 09:49",114677033
"11/06/2019 09:49",114677033
"11/06/2019 09:51",712249963
"11/06/2019 09:57",766201223
"11/06/2019 10:05",777768942
"11/06/2019 10:08",117640000
"11/06/2019 10:10",772440038
"11/06/2019 10:19",779549474
"11/06/2019 10:30",772965271
"11/06/2019 10:55",114677060
"11/06/2019 10:55",114677060
"11/06/2019 11:23",114389212
"11/06/2019 11:23",112550200
"11/06/2019 11:26",711518096
"11/06/2019 12:04",714209309
"11/06/2019 12:08",779301695
"11/06/2019 12:10",814976211
"11/06/2019 12:21",762182268
"11/06/2019 12:31",757345919
"11/06/2019 12:34",766201223
"11/06/2019 12:38",764550041
"11/06/2019 12:39",702600603
"11/06/2019 12:39",767309072
"11/06/2019 12:42",779805849
"11/06/2019 12:43",774489949
"11/06/2019 12:43",779805849
"11/06/2019 12:44",718372048
"11/06/2019 12:44",778764762
"11/06/2019 12:44",774489949
"11/06/2019 12:45",777721179
"11/06/2019 12:48",778764762
"11/06/2019 12:49",776042656
"11/06/2019 12:57",779476549
"11/06/2019 12:59",772213340
"11/06/2019 12:59",775638294
"11/06/2019 13:34",714497018
"11/06/2019 13:35",117500650
"11/06/2019 13:36",117500650
"11/06/2019 13:39",114883883
"11/06/2019 13:53",254928952
"11/06/2019 14:12",114061665
"11/06/2019 14:14",773060400
"11/06/2019 14:23",710465062
"11/06/2019 14:26",710607308
"11/06/2019 14:34",382243362
"11/06/2019 14:37",771978714
"11/06/2019 14:37",771978714
"11/06/2019 14:39",713579570
"11/06/2019 14:40",771978714
"11/06/2019 15:06",783456396
"11/06/2019 15:12",773986579
"11/06/2019 15:19",776663164
"11/06/2019 15:25",474935213
"11/06/2019 15:28",719962727
"11/06/2019 15:33",773667642
"11/06/2019 16:02",112206306
"11/06/2019 16:08",766244721
"11/06/2019 16:13",212255152
"11/06/2019 16:16",702603575
"11/06/2019 16:18",704971840
"11/06/2019 16:20",114897373
"11/06/2019 16:25",772039409
"11/06/2019 16:40",770886191
"11/06/2019 16:41",773247714
"11/06/2019 16:52",112721500
"11/06/2019 16:53",711550182
"11/06/2019 16:54",711550182
"11/06/2019 16:56",312237146
"11/06/2019 18:40",777570650
"11/06/2019 19:36",710956414
"11/06/2019 20:38",779805849
"11/06/2019 21:31",717039124
"12/06/2019 06:04",714777028
"12/06/2019 07:33",714082324
"12/06/2019 08:12",778677783
"12/06/2019 08:16",772367008
"12/06/2019 08:59",776310260
"12/06/2019 09:04",769328701
"12/06/2019 09:19",771770771
"12/06/2019 09:20",756264112
"12/06/2019 09:21",789867651
"12/06/2019 09:21",344941490
"12/06/2019 09:24",765429043
"12/06/2019 09:25",776231144
"12/06/2019 09:33",384976211
"12/06/2019 09:36",717100642
"12/06/2019 09:37",914946421
"12/06/2019 09:38",715472152
"12/06/2019 09:42",114883883
"12/06/2019 09:43",112723185
"12/06/2019 09:44",779279099
"12/06/2019 09:45",718391343
"12/06/2019 09:45",718391343
"12/06/2019 09:46",772316331
"12/06/2019 09:49",333138626
"12/06/2019 09:50",719872705
"12/06/2019 09:58",114676700
"12/06/2019 10:08",718309336
"12/06/2019 10:10",114676700
"12/06/2019 10:13",718450519
"12/06/2019 10:15",772610019
"12/06/2019 10:18",777721179
"12/06/2019 10:20",777535558
"12/06/2019 10:23",767518676
"12/06/2019 10:25",773329774
"12/06/2019 10:28",767518676
"12/06/2019 10:32",777535558
"12/06/2019 10:32",114349299
"12/06/2019 10:33",114062957
"12/06/2019 10:34",719990929
"12/06/2019 10:38",763567237
"12/06/2019 10:41",112852307
"12/06/2019 10:41",762988084
"12/06/2019 10:43",762988084
"12/06/2019 10:43",777307275
"12/06/2019 10:45",112750031
"12/06/2019 10:48",777535558
"12/06/2019 10:49",770021945
"12/06/2019 10:50",771837144
"12/06/2019 10:52",777535558
"12/06/2019 10:53",770021945
"12/06/2019 11:01",776227340
"12/06/2019 11:01",777535558
"12/06/2019 11:04",772928084
"12/06/2019 11:09",768860283
"12/06/2019 11:18",772344681
"12/06/2019 11:27",767518676
"12/06/2019 11:32",779316779
"12/06/2019 11:35",704348458
"12/06/2019 11:45",772443422
"12/06/2019 11:50",766657539
"12/06/2019 11:51",702735331
"12/06/2019 11:51",714027776
"12/06/2019 11:54",789693982
"12/06/2019 12:01",777906768
"12/06/2019 12:01",717311313
"12/06/2019 12:05",344941490
"12/06/2019 12:31",710964163
"12/06/2019 12:33",775463222
"12/06/2019 12:34",777333707
"12/06/2019 12:34",775463222
"12/06/2019 12:38",775463222
"12/06/2019 12:39",775463222
"12/06/2019 12:46",756076023
"12/06/2019 12:46",762374110
"12/06/2019 12:50",777396061
"12/06/2019 12:56",724736613
"12/06/2019 13:01",765814655
"12/06/2019 13:05",771269499
"12/06/2019 13:06",765814655
"12/06/2019 13:11",114677060
"12/06/2019 13:24",114677000
"12/06/2019 13:37",728175509
"12/06/2019 14:14",710699181
"12/06/2019 14:23",718139343
"12/06/2019 14:25",774696946
"12/06/2019 14:26",760916866
"12/06/2019 14:30",114062957
"12/06/2019 14:32",332280457
"12/06/2019 14:47",774800056
"12/06/2019 14:50",114607300
"12/06/2019 15:01",777333707
"12/06/2019 15:21",702787050
"12/06/2019 15:23",702787050
"12/06/2019 15:24",771793916
"12/06/2019 15:25",771793916
"12/06/2019 15:33",777872820
"12/06/2019 15:42",763738540
"12/06/2019 15:42",776455845
"12/06/2019 15:43",768040547
"12/06/2019 15:44",756153600
"12/06/2019 15:48",719398650
"12/06/2019 15:48",776074897
"12/06/2019 16:14",112330195
"12/06/2019 16:22",779941585
"12/06/2019 16:33",779941585
"12/06/2019 16:36",779941585
"12/06/2019 16:54",772440897
"12/06/2019 17:00",772974800
"12/06/2019 17:36",779526463
"12/06/2019 18:10",705068456
"12/06/2019 18:11",705068456
"12/06/2019 18:19",772760730
"12/06/2019 20:10",771180590
"13/06/2019 08:41",776861220
"13/06/2019 08:41",779526463
"13/06/2019 08:41",772225566
"13/06/2019 08:42",716491286
"13/06/2019 08:43",772225566
"13/06/2019 08:54",715165182
"13/06/2019 09:00",769865016
"13/06/2019 09:01",769865016
"13/06/2019 09:04",715165182
"13/06/2019 09:07",774826761
"13/06/2019 09:15",715165182
"13/06/2019 09:24",775463222
"13/06/2019 09:26",716491286
"13/06/2019 09:29",774596531
"13/06/2019 09:34",770052811
"13/06/2019 09:54",912258748
"13/06/2019 09:55",716846829
